{
    "_id": "5e6248fc7d76f2c26d1b7c62",
    "url_name": "bloodhound",
    "en": {
        "item_name": "Bloodhound",
        "description": "Makes comments when the player turns invisible"
    },
    "ru": {
        "item_name": "Bloodhound",
        "description": "Makes comments when the player turns invisible"
    },
    "ko": {
        "item_name": "Bloodhound",
        "description": "Makes comments when the player turns invisible"
    }
}